{
  "status": 200,
  "msg": "",
  "data": {
    "list": [
      {
        "chaptertype": 1,
        "chapterId": 2316888433634924,
        "chapterTitle": "111",
        "chapterCover": "http://file.zijiapuzi.com/zsdl/image/2023084/1691130110740.png",
        "userNickName": "yu123",
        "userHeadUrl": "https://thirdwx.qlogo.cn/mmopen/vi_32/ShxibZv6fYXUibjrEyElX0Viche8YE9j9RhIiazsTflIRkDpKrNScictvOAdyZC3LkDWibIdUKd4BhHkR3qtyssMNoMA/132",
        "bookTitle": "111",
        "examBookId": "2316888433634923",
        "bookCover": "http://file.zijiapuzi.com/zsdl/image/2023084/1691130110740.png?x-oss-process=image/resize,w_500",
        "channelId": 2,
        "userId": 1093534,
        "examBookType": 1,
        "newestChapter": null,
        "belongChannel": null,
        "creatorType": 2,
        "bookLikesNumbers": 0,
        "bookBrowseNumbers": 2,
        "totalNumberWords": 0,
        "isEnd": 2,
        "createTime": 1691130197000
      },
      {
        "chaptertype": 1,
        "chapterId": 2316888433634922,
        "chapterTitle": "123",
        "chapterCover": "http://file.zijiapuzi.com/zsdl/image/2023084/1691129971825.png",
        "userNickName": "yu123",
        "userHeadUrl": "https://thirdwx.qlogo.cn/mmopen/vi_32/ShxibZv6fYXUibjrEyElX0Viche8YE9j9RhIiazsTflIRkDpKrNScictvOAdyZC3LkDWibIdUKd4BhHkR3qtyssMNoMA/132",
        "bookTitle": "123",
        "examBookId": "2316888433634921",
        "bookCover": "http://file.zijiapuzi.com/zsdl/image/2023084/1691129971825.png?x-oss-process=image/resize,w_500",
        "channelId": 2,
        "userId": 1093534,
        "examBookType": 1,
        "newestChapter": null,
        "belongChannel": null,
        "creatorType": 2,
        "bookLikesNumbers": 0,
        "bookBrowseNumbers": 2,
        "totalNumberWords": 0,
        "isEnd": 2,
        "createTime": 1691130068000
      },
      {
        "chaptertype": 1,
        "chapterId": 2316888433634920,
        "chapterTitle": "孙俪资助4年的“白眼狼”向海清，结局令人唏嘘，如今怎么样了？",
        "chapterCover": "http://file.zijiapuzi.com/zsdl/image/2023084/1691129564153.png",
        "userNickName": "yu123",
        "userHeadUrl": "https://thirdwx.qlogo.cn/mmopen/vi_32/ShxibZv6fYXUibjrEyElX0Viche8YE9j9RhIiazsTflIRkDpKrNScictvOAdyZC3LkDWibIdUKd4BhHkR3qtyssMNoMA/132",
        "bookTitle": "孙俪资助4年的“白眼狼”向海清，结局令人唏嘘，如今怎么样了？",
        "examBookId": "2316888433634919",
        "bookCover": "http://file.zijiapuzi.com/zsdl/image/2023084/1691129564153.png?x-oss-process=image/resize,w_500",
        "channelId": 2,
        "userId": 1093534,
        "examBookType": 1,
        "newestChapter": null,
        "belongChannel": null,
        "creatorType": 2,
        "bookLikesNumbers": 0,
        "bookBrowseNumbers": 0,
        "totalNumberWords": 3237,
        "isEnd": 2,
        "createTime": 1691129833000
      },
      {
        "chaptertype": 1,
        "chapterId": 2314204213286608,
        "chapterTitle": "测试",
        "chapterCover": "http://file.zijiapuzi.com/zsdl/image/20230728/1690530563606.png",
        "userNickName": "yu123",
        "userHeadUrl": "https://thirdwx.qlogo.cn/mmopen/vi_32/ShxibZv6fYXUibjrEyElX0Viche8YE9j9RhIiazsTflIRkDpKrNScictvOAdyZC3LkDWibIdUKd4BhHkR3qtyssMNoMA/132",
        "bookTitle": "测试",
        "examBookId": "2314204213286607",
        "bookCover": "http://file.zijiapuzi.com/zsdl/image/20230728/1690530563606.png?x-oss-process=image/resize,w_500",
        "channelId": 2,
        "userId": 1093534,
        "examBookType": 1,
        "newestChapter": null,
        "belongChannel": null,
        "creatorType": 2,
        "bookLikesNumbers": 0,
        "bookBrowseNumbers": 0,
        "totalNumberWords": 0,
        "isEnd": 2,
        "createTime": 1690530668000
      },
      {
        "chaptertype": 1,
        "chapterId": 2314204213286540,
        "chapterTitle": "123456789",
        "chapterCover": "http://file.zijiapuzi.com/zsdl/image/20230728/1690525314367.png",
        "userNickName": "yu123",
        "userHeadUrl": "https://thirdwx.qlogo.cn/mmopen/vi_32/ShxibZv6fYXUibjrEyElX0Viche8YE9j9RhIiazsTflIRkDpKrNScictvOAdyZC3LkDWibIdUKd4BhHkR3qtyssMNoMA/132",
        "bookTitle": "123456789",
        "examBookId": "2314204213286539",
        "bookCover": "http://file.zijiapuzi.com/zsdl/image/20230728/1690525314367.png?x-oss-process=image/resize,w_500",
        "channelId": 2,
        "userId": 1093534,
        "examBookType": 1,
        "newestChapter": null,
        "belongChannel": null,
        "creatorType": 2,
        "bookLikesNumbers": 0,
        "bookBrowseNumbers": 3,
        "totalNumberWords": 0,
        "isEnd": 2,
        "createTime": 1690526162000
      },
      {
        "chaptertype": 1,
        "chapterId": 2281052702896143,
        "chapterTitle": "中国好声音嗨翻全场的吉克隽逸，开始了一系列“作”的行为",
        "chapterCover": "http://file.zijiapuzi.com/zsdl/image/20230726/1690354024280.png",
        "userNickName": "yu123",
        "userHeadUrl": "https://thirdwx.qlogo.cn/mmopen/vi_32/ShxibZv6fYXUibjrEyElX0Viche8YE9j9RhIiazsTflIRkDpKrNScictvOAdyZC3LkDWibIdUKd4BhHkR3qtyssMNoMA/132",
        "bookTitle": "中国好声音嗨翻全场的吉克隽逸，开始了一系列“作”的行为",
        "examBookId": "2281052702896142",
        "bookCover": "http://file.zijiapuzi.com/zsdl/image/20230726/1690354024280.png?x-oss-process=image/resize,w_500",
        "channelId": 2,
        "userId": 1093534,
        "examBookType": 1,
        "newestChapter": null,
        "belongChannel": null,
        "creatorType": 2,
        "bookLikesNumbers": 0,
        "bookBrowseNumbers": 1,
        "totalNumberWords": 8634,
        "isEnd": 2,
        "createTime": 1690354189000
      },
      {
        "chaptertype": 1,
        "chapterId": 1460195331617075,
        "chapterTitle": "城市",
        "chapterCover": "http://zsdl-bucket.oss-cn-hangzhou.aliyuncs.com/zsdl/image/1684223496760",
        "userNickName": "麦田",
        "userHeadUrl": "https://thirdwx.qlogo.cn/mmopen/vi_32/Q0j4TwGTfTK2qlPEOtMPgyaJ6Q2zSnTgicKsOhE3wzbzFD6oOFGibUSWAa42YkkrYwGsl2icWe3mVHlgRClypQibUw/132",
        "bookTitle": "城市",
        "examBookId": "1460195331617074",
        "bookCover": "http://zsdl-bucket.oss-cn-hangzhou.aliyuncs.com/zsdl/image/1684223496760?x-oss-process=image/resize,w_500",
        "channelId": 1,
        "userId": 482751237156397,
        "examBookType": 1,
        "newestChapter": null,
        "belongChannel": null,
        "creatorType": 1,
        "bookLikesNumbers": 7,
        "bookBrowseNumbers": 122,
        "totalNumberWords": 24,
        "isEnd": 2,
        "createTime": 1690182727000
      },
      {
        "chaptertype": null,
        "chapterId": 1144431080490677,
        "chapterTitle": null,
        "chapterCover": null,
        "userNickName": "YULONGJI",
        "userHeadUrl": "http://file.zijiapuzi.com/test/image/20230609/1686297506494.jpg",
        "bookTitle": "合集5555555",
        "examBookId": "1144431080490671",
        "bookCover": "http://file.zijiapuzi.com/test/image/20230419/mmexport1680602326577.jpg?x-oss-process=image/resize,w_500",
        "channelId": 9,
        "userId": 1095581,
        "examBookType": 2,
        "newestChapter": 4,
        "belongChannel": null,
        "creatorType": 2,
        "bookLikesNumbers": 0,
        "bookBrowseNumbers": 14,
        "totalNumberWords": 234,
        "isEnd": 2,
        "createTime": 1681869409000
      },
      {
        "chaptertype": null,
        "chapterId": 1144431080490675,
        "chapterTitle": null,
        "chapterCover": null,
        "userNickName": "YULONGJI",
        "userHeadUrl": "http://file.zijiapuzi.com/test/image/20230609/1686297506494.jpg",
        "bookTitle": "视频合集3131313133",
        "examBookId": "1144431080490674",
        "bookCover": "http://file.zijiapuzi.com/test/image/20230419/mmexport1680602331071.jpg?x-oss-process=image/resize,w_500",
        "channelId": 9,
        "userId": 1095581,
        "examBookType": 4,
        "newestChapter": 1,
        "belongChannel": null,
        "creatorType": 2,
        "bookLikesNumbers": 0,
        "bookBrowseNumbers": 0,
        "totalNumberWords": 0,
        "isEnd": 2,
        "createTime": 1681869405000
      },
      {
        "chaptertype": 1,
        "chapterId": 1016433136181070,
        "chapterTitle": "646464",
        "chapterCover": "http://file.zijiapuzi.com/test/image/20230410/U@%4N@K34S`GHL4RP@8IQ$U.png",
        "userNickName": "yu123",
        "userHeadUrl": "https://thirdwx.qlogo.cn/mmopen/vi_32/ShxibZv6fYXUibjrEyElX0Viche8YE9j9RhIiazsTflIRkDpKrNScictvOAdyZC3LkDWibIdUKd4BhHkR3qtyssMNoMA/132",
        "bookTitle": "646464",
        "examBookId": "1016433136181069",
        "bookCover": "http://file.zijiapuzi.com/test/image/20230410/U@%4N@K34S`GHL4RP@8IQ$U.png?x-oss-process=image/resize,w_500",
        "channelId": 2,
        "userId": 1093534,
        "examBookType": 1,
        "newestChapter": null,
        "belongChannel": null,
        "creatorType": 2,
        "bookLikesNumbers": 0,
        "bookBrowseNumbers": 9,
        "totalNumberWords": 177,
        "isEnd": null,
        "createTime": 1681094324000
      }
    ],
    "totalElements": 49,
    "totalPages": 5,
    "page": 1,
    "size": 10
  }
}